<?xml version="1.0" encoding="utf-8"?>
<!-- Generated by IcoMoon.io -->
<!DOCTYPE svg PUBLIC "-//W3C//DTD SVG 1.1//EN" "http://www.w3.org/Graphics/SVG/1.1/DTD/svg11.dtd">
<svg version="1.1" xmlns="http://www.w3.org/2000/svg" xmlns:xlink="http://www.w3.org/1999/xlink" width="50" height="50" viewBox="0 0 50 50">
<g>
	<line stroke-width="1" x1="" y1="" x2="" y2="" stroke="#449FDB" opacity=""></line>
</g>
	<path d="M48.45 42.549l-11.843-10.073c-1.224-1.102-2.534-1.608-3.591-1.559 2.796-3.275 4.484-7.523 4.484-12.167 0-10.355-8.395-18.75-18.75-18.75s-18.75 8.395-18.75 18.75c0 10.355 8.395 18.75 18.75 18.75 4.643 0 8.892-1.689 12.167-4.485-0.049 1.058 0.457 2.367 1.559 3.591l10.073 11.843c1.725 1.916 4.542 2.078 6.261 0.359s1.557-4.536-0.359-6.261zM18.75 31.25c-6.904 0-12.5-5.596-12.5-12.5s5.596-12.5 12.5-12.5 12.5 5.596 12.5 12.5-5.596 12.5-12.5 12.5z" fill="#000000"></path>
</svg>
