<?xml version="1.0" encoding="utf-8"?>
<!-- Generated by IcoMoon.io -->
<!DOCTYPE svg PUBLIC "-//W3C//DTD SVG 1.1//EN" "http://www.w3.org/Graphics/SVG/1.1/DTD/svg11.dtd">
<svg version="1.1" xmlns="http://www.w3.org/2000/svg" xmlns:xlink="http://www.w3.org/1999/xlink" width="50" height="50" viewBox="0 0 50 50">
<g>
	<line stroke-width="1" x1="" y1="" x2="" y2="" stroke="#449FDB" opacity=""></line>
</g>
	<path d="M50 35.938l-14.063-35.938h-21.875l-14.063 14.063v21.875l14.063 14.063h21.875l14.063-14.063v-21.875l-14.063-14.063zM28.125 40.625h-6.25v-6.25h6.25v6.25zM28.125 28.125h-6.25v-18.75h6.25v18.75z" fill="#000000"></path>
</svg>
